<?xml version="1.0" encoding="UTF-8" standalone="no"?>
<svg
   xmlns:dc="http://purl.org/dc/elements/1.1/"
   xmlns:cc="http://creativecommons.org/ns#"
   xmlns:rdf="http://www.w3.org/1999/02/22-rdf-syntax-ns#"
   xmlns:svg="http://www.w3.org/2000/svg"
   xmlns="http://www.w3.org/2000/svg"
   xmlns:sodipodi="http://sodipodi.sourceforge.net/DTD/sodipodi-0.dtd"
   xmlns:inkscape="http://www.inkscape.org/namespaces/inkscape"
   enable-background="new 0 0 520.7 93.1"
   viewBox="0 0 105.8 105.8"
   version="1.1"
   id="svg4586"
   sodipodi:docname="artstation.svg"
   width="105.8"
   height="105.8"
   inkscape:version="0.92.4 (5da689c313, 2019-01-14)">
  <metadata
     id="metadata4592">
    <rdf:RDF>
      <cc:Work
         rdf:about="">
        <dc:format>image/svg+xml</dc:format>
        <dc:type
           rdf:resource="http://purl.org/dc/dcmitype/StillImage" />
        <dc:title></dc:title>
      </cc:Work>
    </rdf:RDF>
  </metadata>
  <defs
     id="defs4590" />
  <sodipodi:namedview
     pagecolor="#ffffff"
     bordercolor="#666666"
     borderopacity="1"
     objecttolerance="10"
     gridtolerance="10"
     guidetolerance="10"
     inkscape:pageopacity="0"
     inkscape:pageshadow="2"
     inkscape:window-width="1280"
     inkscape:window-height="737"
     id="namedview4588"
     showgrid="false"
     inkscape:zoom="1.594008"
     inkscape:cx="194.69749"
     inkscape:cy="46.550001"
     inkscape:window-x="-8"
     inkscape:window-y="-8"
     inkscape:window-maximized="1"
     inkscape:current-layer="svg4586" />
  <g
     id="g4584"
     style="fill:#fbfbfb;fill-opacity:1"
     transform="translate(0,6.700002)">
    <path
       d="m 0,71.8 8.9,15.4 c 1.8,3.5 5.4,5.9 9.5,5.9 H 77.7 L 65.5,71.8 Z"
       id="path4578"
       inkscape:connector-curvature="0"
       style="fill:#fbfbfb;fill-opacity:1" />
    <path
       d="m 105.8,71.9 c 0,-2.1 -0.6,-4.1 -1.7,-5.8 L 69.3,5.7 C 67.5,2.3 64,0 59.9,0 H 41.5 l 53.7,93 8.5,-14.7 c 1.6,-2.8 2.1,-4 2.1,-6.4 z"
       id="path4580"
       inkscape:connector-curvature="0"
       style="fill:#fbfbfb;fill-opacity:1" />
    <path
       d="M 56.7,56.6 32.7,15.1 8.7,56.6 Z"
       id="path4582"
       inkscape:connector-curvature="0"
       style="fill:#fbfbfb;fill-opacity:1" />
  </g>
</svg>
